digraph "inc/arrayList.h"
{
  edge [fontname="Helvetica",fontsize="10",labelfontname="Helvetica",labelfontsize="10"];
  node [fontname="Helvetica",fontsize="10",shape=record];
  Node5 [label="inc/arrayList.h",height=0.2,width=0.4,color="black", fillcolor="grey75", style="filled", fontcolor="black"];
  Node5 -> Node6 [dir="back",color="midnightblue",fontsize="10",style="solid"];
  Node6 [label="inc/collections.h",height=0.2,width=0.4,color="black", fillcolor="white", style="filled",URL="$collections_8h.html"];
  Node6 -> Node7 [dir="back",color="midnightblue",fontsize="10",style="solid"];
  Node7 [label="inc/terrain.h",height=0.2,width=0.4,color="black", fillcolor="white", style="filled",URL="$terrain_8h.html"];
  Node7 -> Node8 [dir="back",color="midnightblue",fontsize="10",style="solid"];
  Node8 [label="inc/hunter.h",height=0.2,width=0.4,color="black", fillcolor="white", style="filled",URL="$hunter_8h.html"];
  Node8 -> Node9 [dir="back",color="midnightblue",fontsize="10",style="solid"];
  Node9 [label="src/hunter.c",height=0.2,width=0.4,color="black", fillcolor="white", style="filled",URL="$hunter_8c.html"];
  Node7 -> Node10 [dir="back",color="midnightblue",fontsize="10",style="solid"];
  Node10 [label="src/terrain.c",height=0.2,width=0.4,color="black", fillcolor="white", style="filled",URL="$terrain_8c.html"];
  Node6 -> Node11 [dir="back",color="midnightblue",fontsize="10",style="solid"];
  Node11 [label="src/collections.c",height=0.2,width=0.4,color="black", fillcolor="white", style="filled",URL="$collections_8c.html"];
  Node5 -> Node12 [dir="back",color="midnightblue",fontsize="10",style="solid"];
  Node12 [label="inc/map.h",height=0.2,width=0.4,color="black", fillcolor="white", style="filled",URL="$map_8h.html"];
  Node12 -> Node6 [dir="back",color="midnightblue",fontsize="10",style="solid"];
  Node12 -> Node7 [dir="back",color="midnightblue",fontsize="10",style="solid"];
  Node12 -> Node13 [dir="back",color="midnightblue",fontsize="10",style="solid"];
  Node13 [label="src/map.c",height=0.2,width=0.4,color="black", fillcolor="white", style="filled",URL="$map_8c.html",tooltip="Implémentation de la map et de ses fonctions. "];
  Node5 -> Node7 [dir="back",color="midnightblue",fontsize="10",style="solid"];
  Node5 -> Node14 [dir="back",color="midnightblue",fontsize="10",style="solid"];
  Node14 [label="src/arrayList.c",height=0.2,width=0.4,color="black", fillcolor="white", style="filled",URL="$array_list_8c.html"];
}
