digraph "inc/cell.h"
{
  edge [fontname="Helvetica",fontsize="10",labelfontname="Helvetica",labelfontsize="10"];
  node [fontname="Helvetica",fontsize="10",shape=record];
  Node2 [label="inc/cell.h",height=0.2,width=0.4,color="black", fillcolor="grey75", style="filled", fontcolor="black"];
  Node2 -> Node3 [dir="back",color="midnightblue",fontsize="10",style="solid"];
  Node3 [label="inc/terrain.h",height=0.2,width=0.4,color="black", fillcolor="white", style="filled",URL="$terrain_8h.html"];
  Node3 -> Node4 [dir="back",color="midnightblue",fontsize="10",style="solid"];
  Node4 [label="inc/hunter.h",height=0.2,width=0.4,color="black", fillcolor="white", style="filled",URL="$hunter_8h.html"];
  Node4 -> Node5 [dir="back",color="midnightblue",fontsize="10",style="solid"];
  Node5 [label="src/hunter.c",height=0.2,width=0.4,color="black", fillcolor="white", style="filled",URL="$hunter_8c.html"];
  Node3 -> Node6 [dir="back",color="midnightblue",fontsize="10",style="solid"];
  Node6 [label="src/terrain.c",height=0.2,width=0.4,color="black", fillcolor="white", style="filled",URL="$terrain_8c.html"];
  Node2 -> Node7 [dir="back",color="midnightblue",fontsize="10",style="solid"];
  Node7 [label="src/cell.c",height=0.2,width=0.4,color="black", fillcolor="white", style="filled",URL="$cell_8c.html",tooltip="Implémentation des fonctions sur les cellules. "];
}
