digraph "src/collections.c"
{
  edge [fontname="Helvetica",fontsize="10",labelfontname="Helvetica",labelfontsize="10"];
  node [fontname="Helvetica",fontsize="10",shape=record];
  Node0 [label="src/collections.c",height=0.2,width=0.4,color="black", fillcolor="grey75", style="filled", fontcolor="black"];
  Node0 -> Node1 [color="midnightblue",fontsize="10",style="solid"];
  Node1 [label="collections.h",height=0.2,width=0.4,color="black", fillcolor="white", style="filled",URL="$collections_8h.html"];
  Node1 -> Node2 [color="midnightblue",fontsize="10",style="solid"];
  Node2 [label="linkedList.h",height=0.2,width=0.4,color="black", fillcolor="white", style="filled",URL="$linked_list_8h.html"];
  Node2 -> Node3 [color="midnightblue",fontsize="10",style="solid"];
  Node3 [label="stddef.h",height=0.2,width=0.4,color="grey75", fillcolor="white", style="filled"];
  Node2 -> Node4 [color="midnightblue",fontsize="10",style="solid"];
  Node4 [label="collectionEntry.h",height=0.2,width=0.4,color="black", fillcolor="white", style="filled",URL="$collection_entry_8h.html"];
  Node4 -> Node5 [color="midnightblue",fontsize="10",style="solid"];
  Node5 [label="stdlib.h",height=0.2,width=0.4,color="grey75", fillcolor="white", style="filled"];
  Node4 -> Node6 [color="midnightblue",fontsize="10",style="solid"];
  Node6 [label="boolean.h",height=0.2,width=0.4,color="black", fillcolor="white", style="filled",URL="$boolean_8h.html"];
  Node2 -> Node6 [color="midnightblue",fontsize="10",style="solid"];
  Node1 -> Node7 [color="midnightblue",fontsize="10",style="solid"];
  Node7 [label="arrayList.h",height=0.2,width=0.4,color="black", fillcolor="white", style="filled",URL="$array_list_8h.html"];
  Node7 -> Node6 [color="midnightblue",fontsize="10",style="solid"];
  Node7 -> Node4 [color="midnightblue",fontsize="10",style="solid"];
  Node7 -> Node5 [color="midnightblue",fontsize="10",style="solid"];
  Node7 -> Node8 [color="midnightblue",fontsize="10",style="solid"];
  Node8 [label="stdarg.h",height=0.2,width=0.4,color="grey75", fillcolor="white", style="filled"];
  Node1 -> Node9 [color="midnightblue",fontsize="10",style="solid"];
  Node9 [label="map.h",height=0.2,width=0.4,color="black", fillcolor="white", style="filled",URL="$map_8h.html"];
  Node9 -> Node6 [color="midnightblue",fontsize="10",style="solid"];
  Node9 -> Node2 [color="midnightblue",fontsize="10",style="solid"];
  Node9 -> Node7 [color="midnightblue",fontsize="10",style="solid"];
}
