digraph "inc/map.h"
{
  edge [fontname="Helvetica",fontsize="10",labelfontname="Helvetica",labelfontsize="10"];
  node [fontname="Helvetica",fontsize="10",shape=record];
  Node0 [label="inc/map.h",height=0.2,width=0.4,color="black", fillcolor="grey75", style="filled", fontcolor="black"];
  Node0 -> Node1 [color="midnightblue",fontsize="10",style="solid"];
  Node1 [label="boolean.h",height=0.2,width=0.4,color="black", fillcolor="white", style="filled",URL="$boolean_8h.html"];
  Node0 -> Node2 [color="midnightblue",fontsize="10",style="solid"];
  Node2 [label="linkedList.h",height=0.2,width=0.4,color="black", fillcolor="white", style="filled",URL="$linked_list_8h.html"];
  Node2 -> Node3 [color="midnightblue",fontsize="10",style="solid"];
  Node3 [label="stddef.h",height=0.2,width=0.4,color="grey75", fillcolor="white", style="filled"];
  Node2 -> Node4 [color="midnightblue",fontsize="10",style="solid"];
  Node4 [label="collectionEntry.h",height=0.2,width=0.4,color="black", fillcolor="white", style="filled",URL="$collection_entry_8h.html"];
  Node4 -> Node5 [color="midnightblue",fontsize="10",style="solid"];
  Node5 [label="stdlib.h",height=0.2,width=0.4,color="grey75", fillcolor="white", style="filled"];
  Node4 -> Node1 [color="midnightblue",fontsize="10",style="solid"];
  Node2 -> Node1 [color="midnightblue",fontsize="10",style="solid"];
  Node0 -> Node6 [color="midnightblue",fontsize="10",style="solid"];
  Node6 [label="arrayList.h",height=0.2,width=0.4,color="black", fillcolor="white", style="filled",URL="$array_list_8h.html"];
  Node6 -> Node1 [color="midnightblue",fontsize="10",style="solid"];
  Node6 -> Node4 [color="midnightblue",fontsize="10",style="solid"];
  Node6 -> Node5 [color="midnightblue",fontsize="10",style="solid"];
  Node6 -> Node7 [color="midnightblue",fontsize="10",style="solid"];
  Node7 [label="stdarg.h",height=0.2,width=0.4,color="grey75", fillcolor="white", style="filled"];
}
