digraph "inc/position.h"
{
  edge [fontname="Helvetica",fontsize="10",labelfontname="Helvetica",labelfontsize="10"];
  node [fontname="Helvetica",fontsize="10",shape=record];
  Node4 [label="inc/position.h",height=0.2,width=0.4,color="black", fillcolor="grey75", style="filled", fontcolor="black"];
  Node4 -> Node5 [dir="back",color="midnightblue",fontsize="10",style="solid"];
  Node5 [label="inc/terrain.h",height=0.2,width=0.4,color="black", fillcolor="white", style="filled",URL="$terrain_8h.html"];
  Node5 -> Node6 [dir="back",color="midnightblue",fontsize="10",style="solid"];
  Node6 [label="inc/hunter.h",height=0.2,width=0.4,color="black", fillcolor="white", style="filled",URL="$hunter_8h.html"];
  Node6 -> Node7 [dir="back",color="midnightblue",fontsize="10",style="solid"];
  Node7 [label="src/hunter.c",height=0.2,width=0.4,color="black", fillcolor="white", style="filled",URL="$hunter_8c.html"];
  Node5 -> Node8 [dir="back",color="midnightblue",fontsize="10",style="solid"];
  Node8 [label="src/terrain.c",height=0.2,width=0.4,color="black", fillcolor="white", style="filled",URL="$terrain_8c.html"];
  Node4 -> Node9 [dir="back",color="midnightblue",fontsize="10",style="solid"];
  Node9 [label="inc/monster.h",height=0.2,width=0.4,color="black", fillcolor="white", style="filled",URL="$monster_8h.html"];
  Node9 -> Node5 [dir="back",color="midnightblue",fontsize="10",style="solid"];
  Node9 -> Node10 [dir="back",color="midnightblue",fontsize="10",style="solid"];
  Node10 [label="src/monster.c",height=0.2,width=0.4,color="black", fillcolor="white", style="filled",URL="$monster_8c.html"];
  Node4 -> Node11 [dir="back",color="midnightblue",fontsize="10",style="solid"];
  Node11 [label="src/arrayList.c",height=0.2,width=0.4,color="black", fillcolor="white", style="filled",URL="$array_list_8c.html"];
  Node4 -> Node12 [dir="back",color="midnightblue",fontsize="10",style="solid"];
  Node12 [label="src/position.c",height=0.2,width=0.4,color="black", fillcolor="white", style="filled",URL="$position_8c.html",tooltip="Structure position et ses fonctions. "];
}
