digraph "src/set.c"
{
  edge [fontname="Helvetica",fontsize="10",labelfontname="Helvetica",labelfontsize="10"];
  node [fontname="Helvetica",fontsize="10",shape=record];
  Node0 [label="src/set.c",height=0.2,width=0.4,color="black", fillcolor="grey75", style="filled", fontcolor="black"];
  Node0 -> Node1 [color="midnightblue",fontsize="10",style="solid"];
  Node1 [label="linkedList.h",height=0.2,width=0.4,color="black", fillcolor="white", style="filled",URL="$linked_list_8h.html"];
  Node1 -> Node2 [color="midnightblue",fontsize="10",style="solid"];
  Node2 [label="stddef.h",height=0.2,width=0.4,color="grey75", fillcolor="white", style="filled"];
  Node1 -> Node3 [color="midnightblue",fontsize="10",style="solid"];
  Node3 [label="collectionEntry.h",height=0.2,width=0.4,color="black", fillcolor="white", style="filled",URL="$collection_entry_8h.html"];
  Node3 -> Node4 [color="midnightblue",fontsize="10",style="solid"];
  Node4 [label="stdlib.h",height=0.2,width=0.4,color="grey75", fillcolor="white", style="filled"];
  Node3 -> Node5 [color="midnightblue",fontsize="10",style="solid"];
  Node5 [label="boolean.h",height=0.2,width=0.4,color="black", fillcolor="white", style="filled",URL="$boolean_8h.html"];
  Node1 -> Node5 [color="midnightblue",fontsize="10",style="solid"];
}
