digraph "inc/monster.h"
{
  edge [fontname="Helvetica",fontsize="10",labelfontname="Helvetica",labelfontsize="10"];
  node [fontname="Helvetica",fontsize="10",shape=record];
  Node5 [label="inc/monster.h",height=0.2,width=0.4,color="black", fillcolor="grey75", style="filled", fontcolor="black"];
  Node5 -> Node6 [dir="back",color="midnightblue",fontsize="10",style="solid",fontname="Helvetica"];
  Node6 [label="inc/terrain.h",height=0.2,width=0.4,color="black", fillcolor="white", style="filled",URL="$terrain_8h.html"];
  Node6 -> Node7 [dir="back",color="midnightblue",fontsize="10",style="solid",fontname="Helvetica"];
  Node7 [label="inc/hunter.h",height=0.2,width=0.4,color="black", fillcolor="white", style="filled",URL="$hunter_8h.html"];
  Node7 -> Node8 [dir="back",color="midnightblue",fontsize="10",style="solid",fontname="Helvetica"];
  Node8 [label="src/hunter.c",height=0.2,width=0.4,color="black", fillcolor="white", style="filled",URL="$hunter_8c.html"];
  Node6 -> Node9 [dir="back",color="midnightblue",fontsize="10",style="solid",fontname="Helvetica"];
  Node9 [label="src/terrain.c",height=0.2,width=0.4,color="black", fillcolor="white", style="filled",URL="$terrain_8c.html"];
  Node5 -> Node10 [dir="back",color="midnightblue",fontsize="10",style="solid",fontname="Helvetica"];
  Node10 [label="src/monster.c",height=0.2,width=0.4,color="black", fillcolor="white", style="filled",URL="$monster_8c.html"];
}
