digraph "map"
{
  edge [fontname="Helvetica",fontsize="10",labelfontname="Helvetica",labelfontsize="10"];
  node [fontname="Helvetica",fontsize="10",shape=record];
  Node1 [label="map",height=0.2,width=0.4,color="black", fillcolor="grey75", style="filled", fontcolor="black"];
  Node2 -> Node1 [dir="back",color="darkorchid3",fontsize="10",style="dashed",label=" valueList" ,fontname="Helvetica"];
  Node2 [label="arrayList",height=0.2,width=0.4,color="black", fillcolor="white", style="filled",URL="$structarray_list.html"];
  Node3 -> Node2 [dir="back",color="darkorchid3",fontsize="10",style="dashed",label=" tab" ,fontname="Helvetica"];
  Node3 [label="collectionEntry",height=0.2,width=0.4,color="black", fillcolor="white", style="filled",URL="$structcollection_entry.html"];
  Node4 -> Node1 [dir="back",color="darkorchid3",fontsize="10",style="dashed",label=" keyList" ,fontname="Helvetica"];
  Node4 [label="linkedListEntry",height=0.2,width=0.4,color="black", fillcolor="white", style="filled",URL="$structlinked_list_entry.html"];
  Node4 -> Node4 [dir="back",color="darkorchid3",fontsize="10",style="dashed",label=" next" ,fontname="Helvetica"];
  Node3 -> Node4 [dir="back",color="darkorchid3",fontsize="10",style="dashed",label=" entry" ,fontname="Helvetica"];
}
